%YAML 1.1
%TAG !u! tag:unity3d.com,2011:
--- !u!114 &11400000
MonoBehaviour:
  m_ObjectHideFlags: 0
  m_PrefabParentObject: {fileID: 0}
  m_PrefabInternal: {fileID: 0}
  m_GameObject: {fileID: 0}
  m_Enabled: 1
  m_EditorHideFlags: 0
  m_Script: {fileID: 1043416908, guid: ec7a51c6e7ac56d409f688a73d1965ad, type: 3}
  m_Name: EditorSettings
  m_EditorClassIdentifier: 
  pluginVersion: 14
